key,a0.25_rp1.0,a0.25_rp1.5,a0.25_rp2.0,a0.25_rp2.5,a0.25_rp3.0,a0.5_rp1.0,a0.5_rp1.5,a0.5_rp2.0,a0.5_rp2.5,a0.5_rp3.0,a1.0_rp1.0,a1.0_rp1.5,a1.0_rp2.0,a1.0_rp2.5,a1.0_rp3.0,polytype
2D-000,0.078405438,1.496133395,0.019595231,0.426903078,0.016813422,0.75396067,1.584548288,0.613493982,0.451850215,0.160675776,1.375155248,1.760452572,1.508468772,0.954156176,0.479339368,graphene4
2D-001,0.078386097,1.496161318,0.019592608,0.426861115,0.016811715,0.753905,1.584533587,0.613483485,0.451802932,0.160671081,1.37510534,1.76040248,1.50842247,0.954114003,0.479311816,graphene4
2D-002,0.078328154,1.496244838,0.019583958,0.426737004,0.016806593,0.753738034,1.584489145,0.613449902,0.451659773,0.16065681,1.374955095,1.760250804,1.508281402,0.953985509,0.479228078,graphene4
2D-003,0.077542998,1.496953182,0.019492743,0.424509161,0.016719484,0.750951719,1.583502723,0.612934517,0.449181142,0.160398788,1.372352001,1.757572648,1.505799642,0.951752407,0.477775303,graphene2
2D-004,0.0759765,1.499571849,0.019267377,0.421523158,0.016598817,0.746881609,1.582637312,0.612151432,0.445791292,0.160064112,1.368788945,1.754044934,1.502532763,0.948745848,0.475802318,graphene
2D-005,0.079297509,1.46914578,0.063776666,0.325616861,0.012143858,0.73341541,1.578292322,0.689668054,0.432455634,0.126958506,1.370509449,1.777637605,1.537002223,0.959483635,0.459719841,7ring5ringSheet
3D-000,0.078034823,1.496286743,0.019561646,0.425613616,0.016764754,0.752415828,1.583914935,0.61321914,0.450438948,0.16052424,1.373677141,1.758912489,1.507041694,0.952880187,0.478510085,graphite
3D-001,0.014696663,1.815832031,0.082761727,0.691785732,0.024356269,0.561996328,1.883381404,1.071478043,0.753574386,0.297354555,1.464569515,2.130739039,2.078527382,1.474678707,0.800690509,diamond
3D-002,0.077584777,1.497299934,0.019479394,0.425107721,0.016740568,0.751574778,1.583905425,0.613030089,0.449806786,0.160470708,1.373008,1.758288176,1.506460743,0.952327148,0.478145472,graphite
3D-003,0.014722041,1.810609265,0.084148803,0.719005103,0.028864881,0.560562968,1.881276471,1.080666686,0.788612464,0.319114765,1.465410665,2.139724813,2.103415829,1.511851692,0.833646168,hexdiamond
3D-004,0.014722099,1.799960837,0.122886414,0.583730568,0.037037573,0.55748164,1.884211397,1.097207826,0.71033307,0.290404345,1.464897514,2.133412893,2.07362559,1.455961882,0.781490876,sp3_4ring
3D-005,0.058096173,1.59390839,0.038891922,0.483705567,0.019845827,0.693641069,1.661834069,0.742139127,0.529097082,0.193751682,1.392331428,1.855461537,1.659969571,1.091715201,0.562373722,crossedgraphene
