key,a0.70_rp2.40,a0.70_rp3.00,a0.70_rp3.60,a0.70_rp4.20,a0.70_rp4.80,a0.70_rp5.40,polytype
bcc,7.219570863,6.289191229,3.618371842,4.523441224,4.014191451,1.498222325,bcc
bcc_00,6.682366962,6.430223936,3.435645613,3.939841244,3.667870563,1.547747086,bcc
bcc_01,7.100610905,6.322954649,3.574363293,4.394058187,3.931871159,1.512585336,bcc
bcc_02,7.001310957,6.351724616,3.510350078,4.263601376,3.873602401,1.53412353,bcc
bcc_03,7.659395452,6.154595813,4.072532125,5.223089696,4.205123805,1.359667275,bcc
bcc_04,7.069288072,6.305809377,3.621029216,4.405233978,3.869883683,1.501038362,bcc
bcc_05,7.251558096,6.286793168,3.705955459,4.618754887,4.016030379,1.466310767,bcc
fcc,6.942844008,5.987526615,3.665369296,4.376051609,3.511625633,1.200625469,fcc
fcc_00,7.189110117,5.925304072,3.925208523,4.751627109,3.554511781,1.212418242,fcc
fcc_01,7.232366189,5.933850465,3.90945546,4.784393171,3.582306544,1.228007713,fcc
fcc_02,6.887849634,6.00850121,3.652355337,4.321837337,3.48865267,1.217469155,fcc
fcc_03,7.129385319,5.939225514,3.873379,4.6710318,3.540043985,1.21262251,fcc
fcc_04,6.22276714,6.137336374,3.327016017,3.560400229,3.248362445,1.224386426,fcc
fcc_05,6.781324733,6.024616328,3.586365721,4.185700027,3.455185624,1.207824579,fcc
hcp,7.946587257,5.854901904,4.831268414,5.927801239,3.998691405,1.195329829,hcp
hcp_00,7.98965526,5.863561205,4.937942072,6.005774325,3.985801728,1.226975556,hcp
hcp_01,7.716439995,5.874376277,4.505295374,5.488393753,3.961004662,1.22374564,hcp
hcp_02,8.060319293,5.87233714,5.083243973,6.193870133,3.994201808,1.189107643,hcp
hcp_03,8.120257244,5.903800639,5.277930228,6.383455343,3.980055588,1.173571875,hcp
hcp_04,7.617261364,5.922257234,4.504684293,5.426874023,3.951529747,1.166259454,hcp
hcp_05,7.811941415,5.88862574,4.709463713,5.742255016,3.984849433,1.164955098,hcp
