x1,x2,x3,x4,x5,sinx,y
0.0,0.0,0.0,0.0,0.0,0.0,0.0016243453636632418
0.050505050505050504,0.002550760126517702,0.00012882626901604557,6.506377223032604e-06,3.286049102541719e-07,0.050483582198422444,0.04987182578477237
0.10101010101010101,0.010203040506070809,0.0010306101521283645,0.00010410203556852167,1.0515357128133501e-05,0.1008384202581046,0.10031024850584115
0.15151515151515152,0.022956841138659322,0.0034783092634332307,0.0005270165550656411,7.985099319176379e-05,0.15093609836592292,0.14986312974376675
0.20202020202020202,0.040812162024283234,0.008244881217026916,0.0016656325690963467,0.00033649142810027204,0.2006488565226854,0.2015142641520101
0.25252525252525254,0.06376900316294257,0.0161032836270057,0.0040664857643953785,0.0010268903445442876,0.24984991635897805,0.24754837766209775
0.30303030303030304,0.09182736455463729,0.027826474107465846,0.008432264881050257,0.0025552317821364414,0.2984138044476411,0.3001586162118576
0.35353535353535354,0.12498724619936741,0.04418741027250363,0.015621811712501283,0.005522862726641868,0.34621667228835856,0.34545546538746347
0.40404040404040403,0.16324864809713294,0.06595904973621533,0.026650121105541547,0.010767725699208705,0.3931366121483298,0.39345565124438686
0.45454545454545453,0.20661157024793386,0.0939143501126972,0.042688340960316914,0.019403791345598595,0.43905396795356066,0.43880459757808327
0.5050505050505051,0.25507601265177027,0.1288262690160456,0.06506377223032606,0.0328604910254172,0.48385164043793466,0.48531374837497965
0.5555555555555556,0.308641975308642,0.1714677640603567,0.09525986892242037,0.05292214940134466,0.5274153857718655,0.5253552450623679
0.6060606060606061,0.36730945821854916,0.22261179285972676,0.13491623809680411,0.08176741702836612,0.5696341069089657,0.5693116897049522
0.6565656565656566,0.4310784613814917,0.28303131302825213,0.18582863986703424,0.12200870294300227,0.6104001369077301,0.6100160825530617
0.7070707070707071,0.49994898479746963,0.353499282180029,0.24994898740002053,0.17673160725253978,0.6496095135057065,0.650743282948042
0.7575757575757576,0.573921028466483,0.4347886579291538,0.3293853469160256,0.2495343537242618,0.6871622442459252,0.6860623529786112
0.8080808080808081,0.6529945923885317,0.5276723978897226,0.42640193768866474,0.3445672223746786,0.7229625614794605,0.72279013327191
0.8585858585858586,0.7371696765636159,0.6329234596758319,0.5434191320449061,0.4665719820587578,0.7569191665938099,0.7560413081758885
0.9090909090909091,0.8264462809917354,0.7513148009015777,0.6830134553650706,0.620921323059155,0.7889454628442574,0.788987676590973
0.9595959595959596,0.9208244056728905,0.8836193791810565,0.847917586082832,0.8136582896754447,0.8189597761944479,0.8195425914081638
1.0101010101010102,1.020304050607081,1.0306101521283648,1.041020355685217,1.0515357128133505,0.8468855636029834,0.8457849444257705
1.0606060606060606,1.1248852157943066,1.193060077357598,1.2653667487126037,1.3420556425739736,0.8726516082248618,0.8737963319347014
1.1111111111111112,1.234567901234568,1.3717421124828535,1.524157902758726,1.6935087808430291,0.8961922010299563,0.8970937917505492
1.1616161616161615,1.3493521069278644,1.567429215118226,1.8207511084706667,2.115013913880067,0.9174473083753648,0.9179498027142666
1.2121212121212122,1.4692378328741966,1.7808943428778141,2.158659809548866,2.616557344907716,0.9363627251042848,0.9372635810535491
1.2626262626262625,1.5942250790735637,2.0129104533757114,2.5415536027471104,3.2090323267008967,0.9528902127809785,0.9522064849218042
1.3131313131313131,1.7243138455259668,2.264250504226017,2.973258237872548,3.9042784941760726,0.9669876227092996,0.9668647324837809
1.3636363636363635,1.8595041322314048,2.5356874530428244,3.4577556177856694,4.715121296980458,0.9786190034210545,0.9776832339867954
1.4141414141414141,1.9997959391898785,2.827994257440232,3.9991837984003284,5.655411432081273,0.9877546923600838,0.9874868042804579
1.4646464646464645,2.1451892664013874,3.1419438750323345,4.601836988683722,6.740064276354946,0.9943713915282457,0.9949017469949839
1.5151515151515151,2.295684113865932,3.47830926343323,5.27016555065641,7.985099319176378,0.9984522269003895,0.9977605661486642
1.5656565656565655,2.4512804815835114,3.8378633802570126,6.008775999392292,9.407679595008133,0.9999867914567981,0.9995900379299422
1.6161616161616161,2.611978369554127,4.221379183117781,6.822431003018636,11.026151115989714,0.9989711717233568,0.9982839990232372
1.6666666666666667,2.777777777777778,4.629629629629631,7.716049382716051,12.860082304526752,0.9954079577517649,0.9945627521102662
1.7171717171717171,2.9486787062544635,5.063387677406655,8.694706112718498,14.930303425880249,0.9893062365143401,0.9886349903835033
1.7676767676767677,3.1246811549841853,5.523426284062954,9.763632320313304,17.25894602075584,0.9806815687302572,0.9806689041313383
1.8181818181818181,3.305785123966942,6.010518407212621,10.92821528584113,19.86948233789296,0.9695559491823237,0.9684386388336884
1.8686868686868687,3.4919906132027347,6.525437004469756,12.19399844269601,22.786764766654162,0.955957750625488,0.9561921663233052
1.9191919191919191,3.683297622691562,7.068955033448452,13.566681377325311,26.03706526961423,0.9399216514301312,0.9415814536072411
1.9696969696969697,3.879706152433425,7.641845451762808,15.052119829229772,29.64811481514955,0.921488547144662,0.9222305913052393
2.0202020202020203,4.081216202428324,8.244881217026919,16.65632569096347,33.649142810027215,0.9007054462029555,0.9005136106505939
2.0707070707070705,4.287827772676256,8.878835286854875,18.38546700813383,38.070916531994285,0.8776253500425995,0.8767377210785147
2.121212121212121,4.499540863177226,9.544480618860783,20.24586797940166,42.945780562367155,0.8523071179396752,0.8515599596459243
2.1717171717171717,4.716355473931231,10.242590170658735,22.244008956481093,48.30769621862055,0.8248153169047747,0.8265077715058025
2.2222222222222223,4.938271604938272,10.973936899862828,24.386526444139616,54.19228098697693,0.7952200570230491,0.7952708647778252
2.2727272727272725,5.165289256198346,11.739293764087149,26.680213100198063,60.63684795499559,0.7635968126582092,0.7629598170116398
2.323232323232323,5.397408427711458,12.539433720945809,29.132017735530667,67.68044524416214,0.7300262299764464,0.7302171454611138
2.3737373737373737,5.634629119477604,13.3751297280529,31.74904531406496,75.36389544247743,0.6945939212811307,0.6966941764176096
2.4242424242424243,5.8769513314967865,14.247154743022513,34.53855695278185,83.72983503704691,0.6573902466827755,0.6575104056352571
2.474747474747475,6.124375063769004,15.156281723468748,37.50796992171559,92.82275384666991,0.6185100836610595,0.6191272867707669
2.525252525252525,6.376900316294255,16.10328362700569,40.664857643953766,102.6890344544287,0.5780525851065732,0.578352755426529
2.5757575757575757,6.634527089072543,17.08893341124746,44.01694969563739,113.37699164027813,0.5361209264593332,0.5357686766128397
2.6262626262626263,6.897255382103867,18.114004033808136,47.572131805960765,124.93691181363432,0.4928220425889235,0.49167952439090135
2.676767676767677,7.165085195388227,19.17926845230182,51.338445857171536,137.42109244596423,0.4482663550872666,0.4479170123648537
2.727272727272727,7.438016528925619,20.285499624342595,55.32408988457071,150.88388150337465,0.40256749066949654,0.40235859643612176
2.7777777777777777,7.716049382716049,21.43347050754458,59.537418076512715,165.381716879202,0.3558419914010657,0.3564286145922479
2.8282828282828283,7.999183756759514,22.623954059521857,63.986940774405255,180.97316582660073,0.30820901749007684,0.30904800090395135
2.878787878787879,8.287419651056016,23.85772323788853,68.6813244727094,197.71896439113314,0.25979004340277745,0.260721145484081
2.929292929292929,8.58075706560555,25.135551000258676,73.62939181893955,215.68205684335828,0.2107085480771929,0.21099413540244716
2.9797979797979797,8.87919600040812,26.45821030424642,78.84012161366357,234.92763511142175,0.16108970002491763,0.16197484118918837
3.0303030303030303,9.182736455463727,27.82647410746584,84.32264881050256,255.5231782136441,0.11106003812412972,0.11030564018313306
3.080808080808081,9.49137843077237,29.24111536753104,90.086264516131,277.5384916911106,0.06074714891786741,0.0620000170731007
3.131313131313131,9.805121926334046,30.7029070420561,96.14041599027667,301.04574704026027,0.010279341240534697,0.010792271060952706
3.1818181818181817,10.12396694214876,32.212622088655145,102.4947066457209,326.1195211454756,-0.04021468099759623,-0.040512773832698946
3.2323232323232323,10.447913478216508,33.77103346494225,109.15889604829817,352.83683571167086,-0.09060614703340773,-0.09011762888687024
3.282828282828283,10.776961534537293,35.37891412853151,116.1428999168964,381.27719669688213,-0.14076654764445315,-0.1408421193574742
3.3333333333333335,11.111111111111112,37.037037037037045,123.45679012345681,411.5226337448561,-0.19056796287548539,-0.18943633348803396
3.3838383838383836,11.450362207937964,38.74617514807291,131.11079469297397,443.65773961763915,-0.23988338826222555,-0.23836357144580336
3.4343434343434343,11.794714825017854,40.50710141925324,139.11529780349596,477.76970962816796,-0.28858705872043244,-0.2864014833138993
3.484848484848485,12.144168962350781,42.32058880819211,147.48083978612402,513.9483810728565,-0.33655476927427824,-0.3379512656097664
3.5353535353535355,12.498724619936741,44.187410272503634,156.21811712501287,552.2862726641869,-0.38366419180611233,-0.3851083056115419
3.5858585858585856,12.858381797775735,46.108338769801875,165.33798245737034,592.8786239632977,-0.42979518701982455,-0.430299652882771
3.6363636363636362,13.223140495867767,48.08414725770097,174.85144457345808,635.8234348125748,-0.47483011082223947,-0.47467007375279163
3.686868686868687,13.593000714212835,50.115608693815,184.76966841659066,681.2215047682382,-0.518654114341195,-0.5177779454200788
3.7373737373737375,13.967962452810939,52.20349603575805,195.10397508313616,729.1764725329332,-0.5611554368152017,-0.5608398018679601
3.7878787878787876,14.348025711662073,54.348582241144214,205.86584182251596,779.794855388318,-0.6022256906077457,-0.6042478918235696
3.8383838383838382,14.733190490766248,56.551640267587615,217.06690203720498,833.1860886276554,-0.6417601376193878,-0.6420663416320161
3.888888888888889,15.123456790123456,58.81344307270233,228.71894528273128,889.4625649883994,-0.6796579563927462,-0.678829981750139
3.9393939393939394,15.5188246097337,61.13476361410246,240.83391726767636,948.7396740847856,-0.7158224992291902,-0.7155924044938258
3.9898989898989896,15.919293949596977,63.51637484940208,253.42391985367493,1011.1358418404201,-0.7501615386615378,-0.7493995274812257
4.040404040404041,16.324864809713297,65.95904973621535,266.5012110554155,1076.7725699208709,-0.7825875026542022,-0.7828098307968125
4.090909090909091,16.735537190082646,68.46356123215627,280.07820504063926,1145.7744751662515,-0.813017697930967,-0.8132184559998971
4.141414141414141,17.151311090705025,71.030682294839,294.1674721301413,1218.2693290238171,-0.8413745208608701,-0.8411879594698818
4.191919191919192,17.57218651158045,73.66118588187766,308.78173879777,1294.388096980551,-0.8675856553643758,-0.8671756037171675
4.242424242424242,17.998163452708905,76.35584495088627,323.93388767042654,1374.264977995749,-0.8915842573351402,-0.8913859576150135
4.292929292929293,18.4292419140904,79.11543245947901,339.63695752806643,1458.0374439336188,-0.9133091251070551,-0.9131901164612476
4.343434343434343,18.865421895724925,81.94072136526988,355.9041433036975,1545.8462789958576,-0.9327048555318336,-0.9333755178181226
4.393939393939394,19.306703397612484,84.83248462587304,372.7487960833815,1637.8356191542518,-0.9497219852691181,-0.9493444214827972
4.444444444444445,19.75308641975309,87.79149519890262,390.18442310623385,1734.1529915832618,-0.9643171169287782,-0.9641952956577867
4.494949494949495,20.204570962146718,90.81852604197262,408.22468776442236,1834.9493540926055,-0.9764530297437146,-0.9753235458358027
4.545454545454545,20.661157024793383,93.91435011269719,426.883409603169,1940.3791345598588,-0.9860987744909296,-0.9848998566110281
4.595959595959596,21.122844607693093,97.07974036869048,446.1745643207492,2050.6002703630393,-0.9932297524187915,-0.9930445960013076
4.646464646464646,21.58963371084583,100.31546976756647,466.11228376849067,2165.7742478131886,-0.9978277779792126,-0.9982030629293027
4.696969696969697,22.061524334251608,103.62231126693938,486.7108559507759,2286.066141586978,-0.9998811252047616,-1.000519855612216
4.747474747474747,22.538516477910417,107.0010378244232,507.9847250250394,2411.6446541592777,-0.9993845576124357,-0.9989610632583716
4.797979797979798,23.02061014182226,110.45242239763205,529.9484913017699,2542.682155235764,-0.9963393415578347,-0.9962620014894861
4.848484848484849,23.507805325987146,113.9772379441801,552.6169112445097,2679.354721185501,-0.9907532430056771,-0.9910970966812482
4.898989898989899,24.00010203040506,117.57625742168135,576.0048974698531,2821.8421744735224,-0.9826405077248982,-0.982596910868064
4.94949494949495,24.497500255076016,121.25025378774998,600.1275187474495,2970.328123093437,-0.9720218249588334,-0.9726418258027815
5.0,25.0,125.0,625.0,3125.0,-0.9589242746631385,-0.9582262426290662
